Design Route Status
                                               :      # nets :
   ------------------------------------------- : ----------- :
   # of logical nets.......................... :        5700 :
       # of nets not needing routing.......... :        3028 :
           # of internally routed nets........ :        2996 :
           # of nets with no loads............ :          32 :
       # of routable nets..................... :        2672 :
           # of fully routed nets............. :        2672 :
       # of nets with routing errors.......... :           0 :
   ------------------------------------------- : ----------- :

